{
  "variables": {
    "image_basename": "nc-ubuntu-14.04_x64",
    "base_dir": "ubuntu-14.04",
    "http_dir": "ubuntu-14.04/http/",
    "scripts_dir": "ubuntu-14.04/scripts/",
    "iso_url": "http://releases.ubuntu.com/14.04/ubuntu-14.04.3-server-amd64.iso",
    "iso_checksum": "9e5fecc94b3925bededed0fdca1bd417",
    "iso_checksum_type": "md5",
    "user": "vagrant",
    "password": "vagrant",
    "memory": "2048",
    "disk_size": "256000"
  },
  "builders": [
    {
      "name": "virtualbox",
      "type": "virtualbox-iso",
      "boot_command": [
        "<esc><wait>",
        "<esc><wait>",
        "<enter><wait>",
        "/install/vmlinuz<wait>",
        " auto<wait>",
        " console-setup/ask_detect=false<wait>",
        " console-setup/layoutcode=is<wait>",
        " console-setup/modelcode=pc105<wait>",
        " debian-installer=en_US<wait>",
        " fb=false<wait>",
        " initrd=/install/initrd.gz<wait>",
        " kbd-chooser/method=is<wait>",
        " keyboard-configuration/layout=IS<wait>",
        " keyboard-configuration/variant=IS<wait>",
        " locale=en_US.UTF-8<wait>",
        " netcfg/get_hostname=ubuntu-1404<wait>",
        " netcfg/get_domain=vagrantup.com<wait>",
        " noapic<wait>",
        " preseed/url=http://{{ .HTTPIP }}:{{ .HTTPPort }}/preseed.cfg<wait>",
        " -- <wait>",
        "<enter><wait>"
      ],
      "boot_wait": "10s",
      "disk_size": "{{user `disk_size`}}",
      "guest_os_type": "Ubuntu_64",
      "http_directory": "{{user `http_dir`}}",
      "iso_url": "{{user `iso_url`}}",
      "iso_checksum": "{{user `iso_checksum`}}",
      "iso_checksum_type": "{{user `iso_checksum_type`}}",
      "ssh_username": "{{user `user`}}",
      "ssh_password": "{{user `password`}}",
      "ssh_wait_timeout": "10000s",
      "shutdown_command": "echo 'shutdown -P now' > /tmp/shutdown.sh; echo '{{user `password`}}'|sudo -S sh '/tmp/shutdown.sh'",
      "vboxmanage": [
        [ "modifyvm", "{{.Name}}", "--memory", "{{user `memory`}}" ],
        [ "modifyvm", "{{.Name}}", "--cpus", "1" ]
      ],
      "headless":                "true"
    },
    {
      "name": "qemu",
      "type": "qemu",
      "boot_command": [
        "<esc><wait>",
        "<esc><wait>",
        "<enter><wait>",
        "/install/vmlinuz<wait>",
        " auto<wait>",
        " console-setup/ask_detect=false<wait>",
        " console-setup/layoutcode=is<wait>",
        " console-setup/modelcode=pc105<wait>",
        " debian-installer=en_US<wait>",
        " fb=false<wait>",
        " initrd=/install/initrd.gz<wait>",
        " kbd-chooser/method=is<wait>",
        " keyboard-configuration/layout=IS<wait>",
        " keyboard-configuration/variant=IS<wait>",
        " locale=en_US.UTF-8<wait>",
        " netcfg/get_hostname=ubuntu-1404<wait>",
        " netcfg/get_domain=vagrantup.com<wait>",
        " noapic<wait>",
        " preseed/url=http://{{ .HTTPIP }}:{{ .HTTPPort }}/preseed.cfg<wait>",
        " -- <wait>",
        "<enter><wait>"
      ],
      "boot_wait":               "10s",
      "disk_size":               "{{user `disk_size`}}",
      "format":                  "qcow2",
      "vm_name":                 "{{user `image_basename`}}-{{user `disk_size`}}.qcow2",
      "http_directory":          "{{user `http_dir`}}",
      "iso_url":                 "{{user `iso_url`}}",
      "iso_checksum":            "{{user `iso_checksum`}}",
      "iso_checksum_type":       "{{user `iso_checksum_type`}}",
      "ssh_username":            "{{user `user`}}",
      "ssh_password":            "{{user `password`}}",
      "ssh_wait_timeout":        "10000s",
      "shutdown_command":        "echo 'shutdown -P now' > /tmp/shutdown.sh; echo '{{user `password`}}'|sudo -S sh '/tmp/shutdown.sh'",
      "accelerator":             "kvm",
      "qemuargs":                [[ "-m", "{{user `memory`}}M" ]],
      "headless":                "true"
    }
  ],
  "provisioners": [
    {
      "type": "shell",
      "execute_command": "echo '{{user `password`}}' | sudo -S -E bash '{{.Path}}'",
      "override": {
        "virtualbox": {
          "scripts": [
            "{{user `base_dir`}}/scripts/base.sh",
            "{{user `base_dir`}}/scripts/vagrant.sh",
            "{{user `base_dir`}}/scripts/virtualbox.sh",
            "{{user `base_dir`}}/scripts/cleanup.sh",
            "{{user `base_dir`}}/scripts/zerodisk.sh"
          ]
        },
        "qemu": {
          "scripts": [
            "{{user `base_dir`}}/scripts/base.sh",
            "{{user `base_dir`}}/scripts/cleanup.sh"
          ]
        }
      }

    }
  ],
  "post-processors": [
    {
      "type": "vagrant",
      "only": ["virtualbox"],
      "output": "{{user `image_basename`}}-{{user `disk_size`}}.vagrant.box"
    },
    {
      "type": "compress",
      "only": ["qemu"],
      "output": "{{user `image_basename`}}-{{user `disk_size`}}.qstack.qcow2.tar.gz"
    }
  ]
}
